<svg viewBox="0 0 120 40" fill="none" xmlns="http://www.w3.org/2000/svg">
    <path d="M67.9064 15.63C67.6792 15.7658 67.3583 15.8831 66.9437 15.9819C66.5347 16.0868 65.9838 16.1393 65.2908 16.1393C64.6035 16.1393 63.9305 16.059 63.2716 15.8985C62.0391 15.6022 61.1843 15.0713 60.7071 14.3058C60.2357 13.5342 60 12.5712 60 11.4168V6.85174C60 4.96893 60.5509 3.65404 61.6528 2.90709C62.5446 2.30212 63.8481 1.99963 65.5634 1.99963C68.3182 2.00581 69.9512 2.84844 70.4623 4.52755C70.6327 5.09548 70.7179 5.77761 70.7179 6.57395V6.78692L68.2301 6.99064V6.44431C68.2301 5.55538 68.0314 4.95349 67.6338 4.63866C67.2362 4.31766 66.5375 4.15716 65.5379 4.15716C64.5439 4.15716 63.7942 4.33 63.2887 4.6757C62.7888 5.0214 62.5389 5.63872 62.5389 6.52765V11.6946C62.5389 12.602 62.7973 13.2101 63.3142 13.5188C63.8311 13.8274 64.5808 13.9817 65.5634 13.9817C66.5461 13.9817 67.2702 13.8274 67.736 13.5188C68.2074 13.2101 68.4431 12.602 68.4431 11.6946V10.6945H65.9042V8.88889H70.7265V15.8985H69.3888L68.9884 14.3244C68.9146 14.596 68.7726 14.8491 68.5624 15.0837C68.3579 15.3121 68.1393 15.4942 67.9064 15.63Z" fill="#333333"/>
    <path d="M75.6134 8.53702H78.7232C79.3195 8.53702 79.7285 8.35491 79.95 7.99069C80.1772 7.6203 80.2908 7.06163 80.2908 6.31468C80.2908 4.89485 79.8023 4.18493 78.8254 4.18493H75.6134V8.53702ZM73.083 15.8985V2.23113H78.5102C80.1346 2.23113 81.2393 2.58917 81.8244 3.30526C82.4151 4.02135 82.7104 4.99362 82.7104 6.22208C82.7104 7.44437 82.5457 8.33639 82.2163 8.89815C81.8925 9.45373 81.441 9.85499 80.8616 10.1019L83.2898 15.8985H80.6657L78.459 10.5001H75.6134V15.8985H73.083Z" fill="#333333"/>
    <path d="M87.7082 11.4631H91.6443L89.7103 4.27753L87.7082 11.4631ZM83.8316 15.8985L87.9723 2.23113H91.3291L95.5208 15.8985H92.8371L92.13 13.2965H87.2055L86.4728 15.8985H83.8316Z" fill="#333333"/>
    <path d="M96.8636 15.8985V2.23113H98.7635L105.298 11.602V2.23113H107.547V15.8985H105.648L99.1384 6.67581V15.8985H96.8636Z" fill="#333333"/>
    <path d="M109.913 15.8985V2.23113H115.365C117.376 2.23113 118.728 2.87931 119.421 4.17567C119.807 4.90411 120 5.84552 120 6.9999V11.1946C120 13.5033 119.193 14.9571 117.58 15.5559C116.967 15.7843 116.231 15.8985 115.374 15.8985H109.913ZM112.443 13.7595H115.152C116.016 13.7595 116.618 13.5867 116.958 13.241C117.299 12.8953 117.47 12.3304 117.47 11.5464V6.63877C117.47 5.86712 117.294 5.2961 116.941 4.92571C116.595 4.55532 115.999 4.37013 115.152 4.37013H112.443V13.7595Z" fill="#333333"/>
    <path d="M65.5208 36.9996C64.4871 36.9996 63.6522 36.9194 63.016 36.7589C62.3799 36.5984 61.8687 36.3854 61.4824 36.12C61.1019 35.8545 60.798 35.515 60.5708 35.1014C60.3436 34.6816 60.1903 34.2526 60.1108 33.8143C60.0369 33.376 60 32.8636 60 32.2772V27.7121C60 26.0824 60.3039 24.9404 60.9116 24.286C61.5194 23.6255 62.3259 23.2026 63.3313 23.0174C63.8992 22.9063 64.5411 22.8538 65.2567 22.86C67.8524 22.86 69.4002 23.6316 69.9 25.1749C70.1272 25.8663 70.2408 26.6935 70.2408 27.6565V27.8232L67.7616 28.1381V27.4436C67.7616 26.4929 67.5883 25.8509 67.2418 25.5175C66.9011 25.1842 66.245 25.0175 65.2738 25.0175C64.3025 25.0175 63.601 25.1873 63.1694 25.5268C62.7434 25.8602 62.5304 26.4806 62.5304 27.388V32.555C62.5304 33.4686 62.7491 34.0797 63.1864 34.3884C63.6294 34.6909 64.3309 34.8421 65.2908 34.8421C65.7963 34.8421 66.1968 34.8143 66.4921 34.7588C66.7875 34.697 67.0345 34.5767 67.2333 34.3976C67.4378 34.2186 67.577 33.981 67.6508 33.6846C67.7246 33.3883 67.7616 32.9932 67.7616 32.4994V32.0642H70.2408V32.3142C70.2408 33.6661 70.0562 34.6446 69.687 35.2495C69.3235 35.8483 68.7981 36.2897 68.1109 36.5737C67.4236 36.8577 66.5603 36.9996 65.5208 36.9996Z" fill="#333333"/>
    <path d="M77.36 36.9996C74.8949 36.9996 73.2705 36.3329 72.4867 34.9995C72.0436 34.2587 71.8221 33.2988 71.8221 32.1197V27.8417C71.8221 25.9219 72.3702 24.5792 73.4664 23.8138C74.3695 23.1841 75.6787 22.8662 77.3941 22.86C79.7853 22.86 81.3643 23.5699 82.1311 24.9897C82.5628 25.7861 82.7786 26.783 82.7786 27.9806V31.9716C82.7786 33.8359 82.239 35.1816 81.1598 36.0088C80.2965 36.6694 79.0299 36.9996 77.36 36.9996ZM74.361 32.4253C74.361 33.3204 74.6138 33.947 75.1193 34.305C75.6248 34.6631 76.3774 34.8421 77.377 34.8421C78.3824 34.8421 79.1094 34.6662 79.5581 34.3143C80.0125 33.9563 80.2397 33.3266 80.2397 32.4253V27.4714C80.2397 26.5824 80.0097 25.9528 79.5496 25.5824C79.0895 25.2058 78.3653 25.0175 77.377 25.0175C76.3944 25.0175 75.6447 25.2027 75.1278 25.5731C74.6166 25.9435 74.361 26.5762 74.361 27.4714V32.4253Z" fill="#333333"/>
    <path d="M87.4185 29.3974H90.5282C91.1246 29.3974 91.5336 29.2153 91.7551 28.8511C91.9823 28.4807 92.0959 27.922 92.0959 27.175C92.0959 25.7552 91.6074 25.0453 90.6305 25.0453H87.4185V29.3974ZM84.8881 36.7589V23.0915H90.3152C91.9397 23.0915 93.0444 23.4495 93.6294 24.1656C94.2202 24.8817 94.5155 25.854 94.5155 27.0824C94.5155 28.3047 94.3508 29.1968 94.0214 29.7585C93.6976 30.3141 93.2461 30.7154 92.6667 30.9623L95.0949 36.7589H92.4707L90.2641 31.3604H87.4185V36.7589H84.8881Z" fill="#333333"/>
    <path d="M96.6591 36.7589V23.0915H104.898V25.1657H99.181V28.7955H104.25V30.7771H99.181V34.6847H104.991V36.7589H96.6591Z" fill="#333333"/>
    <path d="M45.7266 34.4149L23.2266 10.0375L0.726562 34.4149L0.726563 21.5847L45.7266 21.5847L45.7266 34.4149Z" fill="#17D589"/>
    <path fill-rule="evenodd" clip-rule="evenodd" d="M23.9525 34.4379C32.4207 34.4379 39.2856 27.5261 39.2856 19C39.2856 10.4739 32.4207 3.56208 23.9525 3.56208C15.4843 3.56208 8.61941 10.4739 8.61941 19C8.61941 27.5261 15.4843 34.4379 23.9525 34.4379ZM23.9525 38C34.3746 38 42.8234 29.4934 42.8234 19C42.8234 8.50659 34.3746 0 23.9525 0C13.5303 0 5.08152 8.50659 5.08152 19C5.08152 29.4934 13.5303 38 23.9525 38Z" fill="#17D589"/>
</svg>